Exploring the R bugzilla
…
First bug is testing bugzilla!

core_members <- c(3, 5, 9, 18, 19, 28, 34, 54, 137, 151, 216, 308, 413, 420, 1249, 1330, 2442)
count(db_bugs, 
      reporter, 
      sort = TRUE)
## # A tibble: 1,731 × 2
##    reporter     n
##       <int> <int>
##  1        2  3594
##  2     1036    73
##  3      963    70
##  4     1044    62
##  5     1056    60
##  6     3256    52
##  7        6    46
##  8      274    39
##  9      732    34
## 10      317    29
## # … with 1,721 more rows
…
  "27" = "Attachment is obsolete", 
  "34" = "?", 
  "36" = "Ever confirmed",
  "39" = "Group", 
  "40" = "?", 
  "41" = "?", 
  "42" = "Deadline", 
  "47" = "?",
  "54" = "See Also"
)
db_activity2 <- db_activity %>% 
    mutate(field = field_names[as.character(fieldid)])
db_activity2 %>% 
    count(field, sort = TRUE)
## # A tibble: 24 × 2
##    field                      n
##    <chr>                  <int>
##  1 Status                  4196
##  2 CC                      3755
##  3 Resolution              3097
##  4 Version                  529
##  5 Ever confirmed           473
##  6 Attachment is obsolete   202
##  7 Summary                  188
##  8 Severity                 165
##  9 OS                       107
## 10 Component                 84
## # … with 14 more rows
…
